{
  "name": "LHCbDirac",
  "version": "v8r8p7",
  "used_projects": {
    "project": [
      [ "Dirac", "v6r17p24",
        [ "bin", "python", "lib" ]
      ],
      [ "LHCbGrid", "v11r14",
        [ "bin", "python", "lib" ]
      ]
    ]
  }
}
